{
    "count": 60,
    "next": "https://swapi.dev/api/planets/?page=2&format=json",
    "previous": null,
    "results": [
        {
            "name": "Bespin",
            "rotation_period": "12",
            "orbital_period": "5110",
            "diameter": "118000",
            "climate": "temperate",
            "gravity": "1.5 (surface), 1 standard (Cloud City)",
            "terrain": "gas giant",
            "surface_water": "0",
            "population": "6000000",
            "residents": [
                "https://swapi.dev/api/people/26/"
            ],
            "films": [
                "https://swapi.dev/api/films/2/"
            ],
            "created": "2014-12-10T11:43:55.240000Z",
            "edited": "2014-12-20T20:58:18.427000Z",
            "url": "https://swapi.dev/api/planets/6/"
        },
        {
            "name": "Naboo",
            "rotation_period": "26",
            "orbital_period": "312",
            "diameter": "12120",
            "climate": "temperate",
            "gravity": "1 standard",
            "terrain": "grassy hills, swamps, forests, mountains",
            "surface_water": "12",
            "population": "4500000000",
            "residents": [
                "https://swapi.dev/api/people/3/",
                "https://swapi.dev/api/people/21/",
                "https://swapi.dev/api/people/35/",
                "https://swapi.dev/api/people/36/",
                "https://swapi.dev/api/people/37/",
                "https://swapi.dev/api/people/38/",
                "https://swapi.dev/api/people/39/",
                "https://swapi.dev/api/people/42/",
                "https://swapi.dev/api/people/60/",
                "https://swapi.dev/api/people/61/",
                "https://swapi.dev/api/people/66/"
            ],
            "films": [
                "https://swapi.dev/api/films/3/",
                "https://swapi.dev/api/films/4/",
                "https://swapi.dev/api/films/5/",
                "https://swapi.dev/api/films/6/"
            ],
            "created": "2014-12-10T11:52:31.066000Z",
            "edited": "2014-12-20T20:58:18.430000Z",
            "url": "https://swapi.dev/api/planets/8/"
        },
        {
            "name": "Coruscant",
            "rotation_period": "24",
            "orbital_period": "368",
            "diameter": "12240",
            "climate": "temperate",
            "gravity": "1 standard",
            "terrain": "cityscape, mountains",
            "surface_water": "unknown",
            "population": "1000000000000",
            "residents": [
                "https://swapi.dev/api/people/34/",
                "https://swapi.dev/api/people/55/",
                "https://swapi.dev/api/people/74/"
            ],
            "films": [
                "https://swapi.dev/api/films/3/",
                "https://swapi.dev/api/films/4/",
                "https://swapi.dev/api/films/5/",
                "https://swapi.dev/api/films/6/"
            ],
            "created": "2014-12-10T11:54:13.921000Z",
            "edited": "2014-12-20T20:58:18.432000Z",
            "url": "https://swapi.dev/api/planets/9/"
        }
    ]
}
